{
    "dev": {
        "aws_region": "us-east-1",
        "django_settings": "project.settings",
        "profile_name": "default",
        "project_name": "project",
        "runtime": "python3.6",
        "s3_bucket": "zappa-nqdzgjux1"
    }
}